数字系统/VS_verilog_源代码文件/pid/tb_Position_Control.vcd
$date
	Thu Jun 01 23:24:35 2023
$end
$version
	Icarus Verilog
$end
$timescale
	1ps
$end
$scope module tb_Position_Control $end
$var wire 16 ! Position_pwm [15:0] $end
$var reg 16 " Sensor [15:0] $end
$var reg 1 # clk $end
$var reg 16 $ posi_kd [15:0] $end
$var reg 16 % posi_kp [15:0] $end
$var reg 16 & positon_target [15:0] $end
$scope module u_Position_Control $end
$var wire 16 ' Sensor [15:0] $end
$var wire 1 # clk $end
$var wire 16 ( posi_kd [15:0] $end
$var wire 16 ) posi_kp [15:0] $end
$var wire 16 * positon_target [15:0] $end
$var reg 16 + D_posi_Bias [15:0] $end
$var reg 16 , Last_posi_Bias [15:0] $end
$var reg 16 - Position_pwm [15:0] $end
$var reg 16 . posi_Bias [15:0] $end
$var reg 16 / posi_least [15:0] $end
$var reg 16 0 rkd [15:0] $end
$var reg 16 1 rkp [15:0] $end
$upscope $end
$upscope $end
$enddefinitions $end
#0
$dumpvars
b1 1
b1 0
b101110111000 /
b1001011000 .
bx -
bx ,
bx +
b11111010000 *
b1 )
b1 (
b1001110001000 '
b11111010000 &
b1 %
b1 $
0#
b1001110001000 "
bx !
$end
#5000
b1001011000 ,
1#
#10000
0#
#15000
b1001011000 !
b1001011000 -
b0 +
1#
#20000
0#
#25000
1#
#30000
0#
#35000
1#
#40000
0#
#45000
1#
#50000
0#
#55000
1#
#60000
0#
#65000
1#
#70000
0#
#75000
1#
#80000
0#
#85000
1#
#90000
0#
#95000
1#
#100000
b1010101000 .
b1111101000 /
0#
b101110111000 "
b101110111000 '
#105000
b1011111000 !
b1011111000 -
b1010101000 ,
b1010000 +
1#
#110000
0#
#115000
b1010101000 !
b1010101000 -
b0 +
1#
#120000
0#
#125000
1#
#130000
0#
#135000
1#
#140000
0#
#145000
1#
#150000
0#
#155000
1#
#160000
0#
#165000
1#
#170000
0#
#175000
1#
#180000
0#
#185000
1#
#190000
0#
#195000
1#
#200000
b1010000100 .
b111110100 /
0#
b100111000100 "
b100111000100 '
#205000
b1001100000 !
b1001100000 -
b1010000100 ,
b1111111111011100 +
1#
#210000
0#
#215000
b1010000100 !
b1010000100 -
b0 +
1#
#220000
0#
#225000
1#
#230000
0#
#235000
1#
#240000
0#
#245000
1#
#250000
0#
#255000
1#
#260000
0#
#265000
1#
#270000
0#
#275000
1#
#280000
0#
#285000
1#
#290000
0#
#295000
1#
#300000
b1000101011 .
b11001000 /
0#
b100010011000 "
b100010011000 '
#305000
b111010010 !
b111010010 -
b1000101011 ,
b1111111110100111 +
1#
#310000
0#
#315000
b1000101011 !
b1000101011 -
b0 +
1#
#320000
0#
#325000
1#
#330000
0#
#335000
1#
#340000
0#
#345000
1#
#350000
0#
#355000
1#
#360000
0#
#365000
1#
#370000
0#
#375000
1#
#380000
0#
#385000
1#
#390000
0#
#395000
1#
#400000
b111010000 .
b1100100 /
0#
b100000110100 "
b100000110100 '
#405000
b101110101 !
b101110101 -
b111010000 ,
b1111111110100101 +
1#
#410000
0#
#415000
b111010000 !
b111010000 -
b0 +
1#
#420000
0#
#425000
1#
#430000
0#
#435000
1#
#440000
0#
#445000
1#
#450000
0#
#455000
1#
#460000
0#
#465000
1#
#470000
0#
#475000
1#
#480000
0#
#485000
1#
#490000
0#
#495000
1#
#500000
b110000010 .
b1001011 /
0#
b100000011011 "
b100000011011 '
#505000
b100110100 !
b100110100 -
b110000010 ,
b1111111110110010 +
1#
#510000
0#
#515000
b110000010 !
b110000010 -
b0 +
1#
